^C:\USERS\UNDISPUTED\DOCUMENTS\VISUAL STUDIO 2010\PROJECTS\VISUAL_CYBOP\VISUAL_CYBOP\FORM1.RESX|C:\USERS\UNDISPUTED\DOCUMENTS\VISUAL STUDIO 2010\PROJECTS\VISUAL_CYBOP\VISUAL_CYBOP\PROPERTIES\RESOURCES.RESX
C:\USERS\UNDISPUTED\DOCUMENTS\VISUAL STUDIO 2010\PROJECTS\VISUAL_CYBOP\VISUAL_CYBOP\OBJ\X86\DEBUG\VISUAL_CYBOP.FRM_MAIN.RESOURCES
C:\USERS\UNDISPUTED\DOCUMENTS\VISUAL STUDIO 2010\PROJECTS\VISUAL_CYBOP\VISUAL_CYBOP\OBJ\X86\DEBUG\VISUAL_CYBOP.PROPERTIES.RESOURCES.RESOURCES
